{
  "RebornOSFIRE": {
    "ProgramsTab": {
      "AddonsTab": {
        "Addons": "Accessoires",
        "ControlMycroft": "Steuern Sie Mycroft",
        "InstallAnbox": "Installieren Sie Anbox",
        "RemoveAnbox": "Deinstallieren Sie Anbox",
        "RemoveMycroft": "Entfernen Sie Mycroft"
      },
      "Programs": "Programme",
      "ToolsTab": {
        "ArchKernelManager": "Wählen Sie Arch Linux Kernel",
        "PacmanSettings": "Pacman-Einstellungen",
        "Pamac": "Pamac-Programm",
        "Stacer": "Stacer",
        "Tools": "Werkzeuge"
      },
      "WormholeTab": {
        "EnterCode": "Code zum Empfangen der Datei / des Ordners (drücken Sie die Eingabetaste)",
        "SelectFile": "Wählen Sie die Datei aus",
        "SelectFolder": "Wählen Sie den Ordner aus",
        "WhatIsWormhole": "Was ist Wormhole?",
        "Wormhole": "Wormhole",
        "WormholeDescription": "Es ist eine äußerst sichere, private und Open-Source-Alternative zu Airdrop. Es ist wirklich ein Filesharing-Dienst. Sie können eine Datei oder einen Ordner für jeden PC auf der Welt freigeben. Wenn Sie interessiert sind, verlassen wir hier Ihre Seite auf Github: https://github.com/warner/magic-wormhole"
      }
    },
    "RebornOSCustomizationTab": {
      "DesktopEnvironmentsTab": {
        "Budgie": "Budgie",
        "Cinnamon": "Cinnamon",
        "Deepin": "Deepin",
        "DesktopEnvironments": "Desktop-Umgebungen",
        "Enlightenment": "Enlightenment",
        "GNOME": "GNOME",
        "InstallButton": "Installieren",
        "KDEplasma": "KDE Plasma",
        "LXQt": "LXQt",
        "Mate": "Mate",
        "OpenBox": "OpenBox",
        "XFCE": "XFCE",
        "i3": "i3"
      },
      "DisplayManagersTab": {
        "DisplayManagers": "Display-Manager",
        "LightDMColumn": {
          "DefaultDM": "Als Standard-Bildschirmmanager festlegen",
          "LightDM": "Light Display Manager (Light DM)",
          "TestGreeter": "Wählen Sie den zu testenden Anmeldebildschirm aus:",
          "UseGreeter": "Wählen Sie den zu verwendenden Anmeldebildschirm aus:"
        },
        "SDDMColumn": {
          "DefaultDM": "Als Standard-Bildschirmmanager festlegen",
          "SDDM": "Simple Desktop Display Manager (SDDM)",
          "TestTheme": "Wählen Sie das zu testende Thema aus:",
          "UseTheme": "Wählen Sie das zu verwendende Thema aus:"
        }
      },
      "RebornOSCustomization": "RebornOS-Anpassung"
    },
    "RollbackTab": {
      "Rollback": "Mein System Zurücksetzen",
      "RollbackSystem": "Setzen Sie Ihr System auf einen vorherigen Zustand zurück",
      "UpgradeToCurrent": "Aktualisieren Sie erneut auf aktuelle Pakete"
    },
    "Settings": {
      "DeepinTerminal": "Deepin Terminal",
      "ExitSettings": "Ausgang",
      "GnomeTerminal": "GNOME-Terminal",
      "Konsole": "Konsole",
      "LXTerminal": "LXTerminal",
      "MateTerminal": "MATE-Terminal",
      "SelectTerminal": "Wählen Sie Terminal...",
      "SettingsDialog": "Einstellungen",
      "TerminalSelectionDialog": "Wählen Sie das Terminal aus, das Sie verwenden möchten",
      "Terminology": "Terminology",
      "Xfce4Terminal": "XFCE4-Terminal",
      "Xterm": "Xterm"
    },
    "SystemTasksTab": {
      "RepairTab": {
        "Apply": "Anwenden",
        "Downgrade": "Downgrade",
        "DowngradeDialog": {
          "DowngradeButton": "Downgrade",
          "DowngradeInsert": "Bitte fügen Sie das Paket zum Downgrade ein"
        },
        "RebuildGrub": "Grub (Bootloader) neu erstellen",
        "ReinstallGrub": "Grub (Bootloader) neu installieren",
        "RemovePackage": "Paket entfernen (Abhängigkeiten verlassen)",
        "RemovePackageDialog": {
          "RemoveButton": "Paket entfernen",
          "RemoveInsert": "Bitte legen Sie das zu entfernende Paket ein"
        },
        "Repair": "Reparatur",
        "SaveRecover": "Programme speichern / wiederherstellen",
        "SaveRecoverDialog": {
          "RecoverFromButton": "Sich erholen von",
          "SaveToButton": "Speichern unter"
        }
      },
      "SystemMaintenanceTab": {
        "Apply": "Anwenden",
        "CacheRemove": "Cache löschen",
        "CleanJournal": "Journal reinigen",
        "RankMirrors": "Spiegel klassifizieren",
        "RemoveAdvanced": "Fortgeschrittene",
        "RemoveAll": "Speichern",
        "RemoveUnnecessaryPrograms": "Entfernen Sie unnötige Programme",
        "RemoveUnnecessaryProgramsDialog": {
          "EditListButton": "Bearbeitete Liste speichern",
          "RemovePackagesButton": "Pakete entfernen"
        },
        "SystemMaintenance": "Systemwartung"
      },
      "SystemTasks": "Systemaufgaben"
    }
  }
}
