{
  "RebornOSFIRE": {
    "ProgramsTab": {
      "AddonsTab": {
        "Addons": "Dodatki",
        "ControlMycroft": "Control Mycroft",
        "InstallAnbox": "Zainstaluj Anbox",
        "RemoveAnbox": "Odinstaluj Anbox",
        "RemoveMycroft": "Odinstaluj Mycroft"
      },
      "Programs": "Programy",
      "ToolsTab": {
        "ArchKernelManager": "Manager Arch Kernel",
        "PacmanSettings": "Ustawienia Pacman",
        "Pamac": "Pamac - Programy",
        "Stacer": "Stacer",
        "Tools": "Narzędzia"
      },
      "WormholeTab": {
        "EnterCode": "Wprowadź kod aby otrzymać plik / folder (wciśnij Enter)",
        "SelectFile": "Wybierz plik",
        "SelectFolder": "Wybierz Folder",
        "WhatIsWormhole": "Czym jest Wormhole?",
        "Wormhole": "Wormhole",
        "WormholeDescription": "Wormhole jest niezwykle bezpieczną, prywatną i opartą na otwartym kodzie źródłowym (opensource) alternatywą dla Airdrop. Lub jakiejkolwiej innej usługi wymiany plików. Ale w przeciwieństwie do Airdrop, Wormhole pozwala na współdzielenie pliku lub folderu z dowolnym komputerem na świecie. Jeśli jesteś zainteresowany projektem odwiedź stronę Github'a: https://github.com/warner/magic-wormhole"
      }
    },
    "RebornOSCustomizationTab": {
      "DesktopEnvironmentsTab": {
        "Budgie": "Budgie",
        "Cinnamon": "Cinnamon",
        "Deepin": "Deepin",
        "DesktopEnvironments": "Środowiska graficzne",
        "Enlightenment": "Enlightenment",
        "GNOME": "GNOME",
        "InstallButton": "Zainstaluj",
        "KDEplasma": "KDE Plasma",
        "LXQt": "LXQt",
        "Mate": "Mate",
        "OpenBox": "OpenBox",
        "XFCE": "XFCE",
        "i3": "i3"
      },
      "DisplayManagersTab": {
        "DisplayManagers": "Menedżer ekranu",
        "LightDMColumn": {
          "DefaultDM": "Ustaw jako domyślny Menadżer Ekranu",
          "LightDM": "Light Display Manager (Light DM)",
          "TestGreeter": "Wybierz ekran logowania, który chcesz przetestować:",
          "UseGreeter": "Wybierz ekran logowania, którego chcesz użyć:"
        },
        "SDDMColumn": {
          "DefaultDM": "Ustaw jako domyślny Menedżer Ekranu",
          "SDDM": "Simple Desktop Display Manager (SDDM)",
          "TestTheme": "Wybierz motyw, który chcesz przetestować:",
          "UseTheme": "Wybierz motyw, którego chcesz użyć:"
        }
      },
      "RebornOSCustomization": "Personalizacja RebornOS"
    },
    "RollbackTab": {
      "Rollback": "Przywróć mój system",
      "RollbackSystem": "Przywróć swój system do poprzedniego stanu",
      "UpgradeToCurrent": "Ponowna aktualizacja do aktualnych pakietów"
    },
    "Settings": {
      "DeepinTerminal": "Terminal Deepin",
      "ExitSettings": "Zamknij",
      "GnomeTerminal": "Terminal GNOME",
      "Konsole": "Konsola",
      "LXTerminal": "LXTerminal",
      "MateTerminal": "Terminal MATE",
      "SelectTerminal": "Wybierz Terminal...",
      "SettingsDialog": "Ustawienia",
      "TerminalSelectionDialog": "Wybierz ulubiony terminal:",
      "Terminology": "Terminologia",
      "Xfce4Terminal": "Terminal XFCE4",
      "Xterm": "Xterm"
    },
    "SystemTasksTab": {
      "RepairTab": {
        "Apply": "Zastosuj",
        "Downgrade": "Przywróć",
        "DowngradeDialog": {
          "DowngradeButton": "Przywróć",
          "DowngradeInsert": "Proszę wskazać pakiet do przywrócenia poprzedniej wersji"
        },
        "RebuildGrub": "Zrekonstruuj GRUB (bootloader)",
        "ReinstallGrub": "Przeinstaluj GRUB (bootloader)",
        "RemovePackage": "Usuń pakiet (pozostawiając zależności)",
        "RemovePackageDialog": {
          "RemoveButton": "Usuń pakiet",
          "RemoveInsert": "Proszę wskazać pakiet do usunięcia"
        },
        "Repair": "Napraw",
        "SaveRecover": "Zapisz/Odzyskaj programy",
        "SaveRecoverDialog": {
          "RecoverFromButton": "Odzyskaj z",
          "SaveToButton": "Zapisz do"
        }
      },
      "SystemMaintenanceTab": {
        "Apply": "Zastosuj",
        "CacheRemove": "Wyczyść pamięć podręczną",
        "CleanJournal": "Wyczyść Dziennik",
        "RankMirrors": "Ranking Mirror'ów",
        "RemoveAdvanced": "Zaawansowane",
        "RemoveAll": "Zapisz",
        "RemoveUnnecessaryPrograms": "Usuń niepotrzebne programy",
        "RemoveUnnecessaryProgramsDialog": {
          "EditListButton": "Zapisz listę",
          "RemovePackagesButton": "Usuń pakiety"
        },
        "SystemMaintenance": "Konserwacja systemu"
      },
      "SystemTasks": "Menedżer zadań"
    }
  }
}
