{
  "RebornOSFIRE": {
    "ProgramsTab": {
      "AddonsTab": {
        "Addons": "Supplément",
        "ControlMycroft": "Contrôle Mycroft",
        "InstallAnbox": "Installer Anbox",
        "RemoveAnbox": "Désinstaller Anbox",
        "RemoveMycroft": "Désinstaller Mycroft"
      },
      "Programs": "Programmes",
      "ToolsTab": {
        "ArchKernelManager": "Gérer les Kernel de Arch",
        "PacmanSettings": "Paramètre de Pacman",
        "Pamac": "Logiciel Pamac",
        "Stacer": "Stacer",
        "Tools": "Outils"
      },
      "WormholeTab": {
        "EnterCode": "Entrer un code pour recevoir des fichiers / dossiers (appuyer sur Entrer)",
        "SelectFile": "Sélectionner un fichier",
        "SelectFolder": "Sélectionner un dossier",
        "WhatIsWormhole": "C'est quoi Wormhole ?",
        "Wormhole": "Wormhole",
        "WormholeDescription": "Wormhole est une alternative à Airdrop extremement sécures, privés et opensource. Il permet aussi de partager un fichier ou dossier à n'importe quelle ordinateur sur la planète. Voici le liens github  pour les intéressés: https://github.com/warner/magic-wormhole"
      }
    },
    "RebornOSCustomizationTab": {
      "DesktopEnvironmentsTab": {
        "Budgie": "Budgie",
        "Cinnamon": "Cinnamon",
        "Deepin": "Deepin",
        "DesktopEnvironments": "Environement de Bureau",
        "Enlightenment": "Enlightenment",
        "GNOME": "GNOME",
        "InstallButton": "Installer",
        "KDEplasma": "KDE Plasma",
        "LXQt": "LXQt",
        "Mate": "Mate",
        "OpenBox": "OpenBox",
        "XFCE": "XFCE",
        "i3": "i3"
      },
      "DisplayManagersTab": {
        "DisplayManagers": "Géreur d'affichage",
        "LightDMColumn": {
          "DefaultDM": "Sélectionner comme géreur d'affichage par défaut",
          "LightDM": "Light Display Manager (Light DM)",
          "TestGreeter": "Sélectionner un géreur d'affichage à tester:",
          "UseGreeter": "Sélectionner un géreur d'affichage à utiliser:"
        },
        "SDDMColumn": {
          "DefaultDM": "Sélectionner comme géreur d'affichage par défaut",
          "SDDM": "Simple Desktop Display Manager (SDDM)",
          "TestTheme": "Sélectionner un thème à tester:",
          "UseTheme": "Sélectionner un thème à utiliser:"
        }
      },
      "RebornOSCustomization": "Personaliser RebornOS"
    },
    "RollbackTab": {
      "Rollback": "Rembobiner Mon Système",
      "RollbackSystem": "Retourner votre système à un états passer ?",
      "UpgradeToCurrent": "Mettre à niveau le système à l'état actuelle des serveurs."
    },
    "Settings": {
      "DeepinTerminal": "Terminale Deepin",
      "ExitSettings": "Quitter",
      "GnomeTerminal": "Terminale GNOME",
      "Konsole": "Konsole",
      "LXTerminal": "LXTerminale",
      "MateTerminal": "Terminale MATE",
      "SelectTerminal": "Selectionner un terminal...",
      "SettingsDialog": "Paramètres",
      "TerminalSelectionDialog": "Veuiller sélectionioner votre terminale préféré:",
      "Terminology": "Terminology",
      "Xfce4Terminal": "Terminale XFCE4",
      "Xterm": "Xterm"
    },
    "SystemTasksTab": {
      "RepairTab": {
        "Apply": "Appliquer",
        "Downgrade": "Renverser",
        "DowngradeDialog": {
          "DowngradeButton": "Renverser",
          "DowngradeInsert": "Veuiller sélectioner un paquet à renverser."
        },
        "RebuildGrub": "Recontruire Grub (manageur de démarrage)",
        "ReinstallGrub": "Réinstaller Grub (manageur de démarrage)",
        "RemovePackage": "Désinstaller un paquet (laisser les dépendance installer)",
        "RemovePackageDialog": {
          "RemoveButton": "Enlever le paquet",
          "RemoveInsert": "Veuiller insérer un paquet à désintaller"
        },
        "Repair": "Reparer",
        "SaveRecover": "Sauvegarder/Recouvrir Logiciel",
        "SaveRecoverDialog": {
          "RecoverFromButton": "Source de recouvrement",
          "SaveToButton": "Enregistrer sous"
        }
      },
      "SystemMaintenanceTab": {
        "Apply": "Appliquer",
        "CacheRemove": "Flusher la Cache",
        "CleanJournal": "Flusher le journal",
        "RankMirrors": "Classer les mirroires par vitesses",
        "RemoveAdvanced": "Avancé",
        "RemoveAll": "Sauvegarder",
        "RemoveUnnecessaryPrograms": "Enlever les programmes non nécessaire",
        "RemoveUnnecessaryProgramsDialog": {
          "EditListButton": "Sauvegarder la Liste éditée",
          "RemovePackagesButton": "Enlever les paquets"
        },
        "SystemMaintenance": "Maintenance de système"
      },
      "SystemTasks": "Tâche du système"
    }
  }
}
