{
  "RebornOSFIRE": {
    "ProgramsTab": {
      "AddonsTab": {
        "Addons": "配飾",
        "ControlMycroft": "控制Mycroft",
        "InstallAnbox": "安裝Anbox",
        "RemoveAnbox": "卸載Anbox",
        "RemoveMycroft": "卸載Mycroft"
      },
      "Programs": "程式",
      "ToolsTab": {
        "ArchKernelManager": "Arch Linux核心選擇器",
        "PacmanSettings": "配置“ pacman”",
        "Pamac": "Pamac",
        "Stacer": "Stacer",
        "Tools": "工具類"
      },
      "WormholeTab": {
        "EnterCode": "輸入代碼以接收文件/文件夾（按Enter）",
        "SelectFile": "選擇文件",
        "SelectFolder": "選擇文件夾",
        "WhatIsWormhole": "什麼是蟲洞？",
        "Wormhole": "Wormhole",
        "WormholeDescription": "它是Airdrop的極為安全，私有和開源的替代方案。 它確實是一種文件共享服務。 它使您可以與世界上任何一台PC共享文件或文件夾。 如果您有興趣，請在此處將您的頁面保留在Github上：https://github.com/warner/magic-wormhole"
      }
    },
    "RebornOSCustomizationTab": {
      "DesktopEnvironmentsTab": {
        "Budgie": "Budgie",
        "Cinnamon": "Cinnamon",
        "Deepin": "Deepin",
        "DesktopEnvironments": "桌面環境",
        "Enlightenment": "Enlightenment",
        "GNOME": "GNOME",
        "InstallButton": "安裝",
        "KDEplasma": "KDE Plasma",
        "LXQt": "LXQt",
        "Mate": "Mate",
        "OpenBox": "OpenBox",
        "XFCE": "XFCE",
        "i3": "i3"
      },
      "DisplayManagersTab": {
        "DisplayManagers": "展示經理",
        "LightDMColumn": {
          "DefaultDM": "設置為默認屏幕管理器",
          "LightDM": "Light Display Manager (Light DM)",
          "TestGreeter": "選擇登錄屏幕進行測試：",
          "UseGreeter": "選擇要使用的登錄屏幕："
        },
        "SDDMColumn": {
          "DefaultDM": "設置為默認屏幕管理器",
          "SDDM": "簡單桌面顯示管理器（SDDM）",
          "TestTheme": "選擇要測試的主題：",
          "UseTheme": "選擇要使用的主題："
        }
      },
      "RebornOSCustomization": "RebornOS定制"
    },
    "RollbackTab": {
      "Rollback": "回溯我的系统",
      "RollbackSystem": "回滾系統到先前狀態",
      "UpgradeToCurrent": "再次升級到當前軟件包"
    },
    "Settings": {
      "DeepinTerminal": "深度終端",
      "ExitSettings": "完",
      "GnomeTerminal": "GNOME終端",
      "Konsole": "Konsole",
      "LXTerminal": "LXTerminal",
      "MateTerminal": "Terminal de MATE",
      "SelectTerminal": "選擇終端...",
      "SettingsDialog": "設定值",
      "TerminalSelectionDialog": "請選擇您喜歡的終端：",
      "Terminology": "Terminology",
      "Xfce4Terminal": "XFCE4終端",
      "Xterm": "Xterm"
    },
    "SystemTasksTab": {
      "RepairTab": {
        "Apply": "賦值",
        "Downgrade": "降級",
        "DowngradeDialog": {
          "DowngradeButton": "降級",
          "DowngradeInsert": "請插入軟件包以降級"
        },
        "RebuildGrub": "重建Grub（引導程序）",
        "ReinstallGrub": "重新安裝Grub（引導程序）",
        "RemovePackage": "刪除軟件包（保留依賴項）",
        "RemovePackageDialog": {
          "RemoveButton": "移除包裹",
          "RemoveInsert": "指示要卸載的軟件包"
        },
        "Repair": "修理",
        "SaveRecover": "保存/檢索程序",
        "SaveRecoverDialog": {
          "RecoverFromButton": "從中檢索",
          "SaveToButton": "存到"
        }
      },
      "SystemMaintenanceTab": {
        "Apply": "賦值",
        "CacheRemove": "清除緩存",
        "CleanJournal": "清潔日記",
        "RankMirrors": "排序鏡子",
        "RemoveAdvanced": "高级",
        "RemoveAll": "保存",
        "RemoveUnnecessaryPrograms": "刪除不必要的程序",
        "RemoveUnnecessaryProgramsDialog": {
          "EditListButton": "保存已編輯列表",
          "RemovePackagesButton": "刪除包裹"
        },
        "SystemMaintenance": "系統維護"
      },
      "SystemTasks": "系統任務"
    }
  }
}
