{
  "RebornOSFIRE": {
    "ProgramsTab": {
      "AddonsTab": {
        "Addons": "Complementos",
        "ControlMycroft": "Controlar Mycroft",
        "InstallAnbox": "Instalar Anbox",
        "RemoveAnbox": "Desinstalar Anbox",
        "RemoveMycroft": "Desinstalar Mycroft"
      },
      "Programs": "Programas",
      "ToolsTab": {
        "ArchKernelManager": "Seleccionador de Núcleos de Arch Linux",
        "PacmanSettings": "Ajustes de Pacman",
        "Pamac": "Programa Pamac",
        "Stacer": "Stacer",
        "Tools": "Herramientas"
      },
      "WormholeTab": {
        "EnterCode": "Entre el código para recibir archivo/carpeta, y pulse Enter",
        "SelectFile": "Seleccione el archivo",
        "SelectFolder": "Seleccione la carpeta",
        "WhatIsWormhole": "¿Qué es Wormhole?",
        "Wormhole": "Wormhole",
        "WormholeDescription": "Es una alternativa extremadamente segura, privada y de código abierto, de Airdrop. Realmente es un servicio de intercambio de archivos. Le permite compartir un archivo o una carpeta con cualquier PC del mundo. Si le interesa, aquí le dejamos su página en Github: https://github.com/warner/magic-wormhole"
      }
    },
    "RebornOSCustomizationTab": {
      "DesktopEnvironmentsTab": {
        "Budgie": "Budgie",
        "Cinnamon": "Cinnamon",
        "Deepin": "Deepin",
        "DesktopEnvironments": "Entornos de escritorio",
        "Enlightenment": "Enlightenment",
        "GNOME": "GNOME",
        "InstallButton": "Instalar",
        "KDEplasma": "KDE Plasma",
        "LXQt": "LXQt",
        "Mate": "Mate",
        "OpenBox": "OpenBox",
        "XFCE": "XFCE",
        "i3": "i3"
      },
      "DisplayManagersTab": {
        "DisplayManagers": "Gestores de pantalla",
        "LightDMColumn": {
          "DefaultDM": "Establecer como gestor de pantalla por defecto",
          "LightDM": "Light Display Manager (Light DM)",
          "TestGreeter": "Seleccione la pantalla de inicio de sesión a probar:",
          "UseGreeter": "Seleccione la pantalla de inicio de sesión a usar:"
        },
        "SDDMColumn": {
          "DefaultDM": "Establecer como gestor de pantalla por defecto",
          "SDDM": "Simple Desktop Display Manager (SDDM)",
          "TestTheme": "Seleccione el tema a probar:",
          "UseTheme": "Seleccione el tema a utilizar:"
        }
      },
      "RebornOSCustomization": "Personalización de RebornOS"
    },
    "RollbackTab": {
      "Rollback": "Retroceder Mi Sistema",
      "RollbackSystem": "Revertir su sistema a un estado anterior",
      "UpgradeToCurrent": "Actualizar a paquetes actuales nuevamente"
    },
    "Settings": {
      "DeepinTerminal": "Terminal de Deepin",
      "ExitSettings": "Salir",
      "GnomeTerminal": "Terminal de GNOME",
      "Konsole": "Konsole",
      "LXTerminal": "LXTerminal",
      "MateTerminal": "Terminal de MATE",
      "SelectTerminal": "Seleccione la Terminal...",
      "SettingsDialog": "Ajustes",
      "TerminalSelectionDialog": "Por favor, seleccione la terminal que desee utilizar",
      "Terminology": "Terminology",
      "Xfce4Terminal": "Terminal de XFCE4",
      "Xterm": "Xterm"
    },
    "SystemTasksTab": {
      "RepairTab": {
        "Apply": "Aplicar",
        "Downgrade": "Degradar",
        "DowngradeDialog": {
          "DowngradeButton": "Degradar",
          "DowngradeInsert": "Por favor, indique el paquete para bajar de versión"
        },
        "RebuildGrub": "Reconstruir Grub (bootloader)",
        "ReinstallGrub": "Reinstalar Grub (bootloader)",
        "RemovePackage": "Eliminar paquete (dejando sus dependencias)",
        "RemovePackageDialog": {
          "RemoveButton": "Eliminar Paquete",
          "RemoveInsert": "Por favor, indique el paquete para desinstalar"
        },
        "Repair": "Reparar",
        "SaveRecover": "Guardar/Recuperar Programas",
        "SaveRecoverDialog": {
          "RecoverFromButton": "Recuperar de",
          "SaveToButton": "Guardar en"
        }
      },
      "SystemMaintenanceTab": {
        "Apply": "Aplicar",
        "CacheRemove": "Limpiar Cache",
        "CleanJournal": "Limpiar Journal",
        "RankMirrors": "Ordenar espejos",
        "RemoveAdvanced": "Avanzado",
        "RemoveAll": "Guardar",
        "RemoveUnnecessaryPrograms": "Eliminar programas innecesarios",
        "RemoveUnnecessaryProgramsDialog": {
          "EditListButton": "Guardar la Lista Editada",
          "RemovePackagesButton": "Desinstalar los paquetes"
        },
        "SystemMaintenance": "Mantenimiento del sistema"
      },
      "SystemTasks": "Tareas del sistema"
    }
  }
}
